{
  "data": [{
    "id": 1,
    "email": "mnoer@outlook.com",
    "first_name": "Muhammad",
    "last_name": "Noer",
    "avatar": "https://reqres.in/img/faces/7-image.jpg"
  }],
  "page": 2,
  "per_page": 6,
  "total": 12,
  "total_pages": 2
}